^Z:\DROPBOX\PROG\C++\АИП\INDIVIDUAL3\INDIVIDUAL3\DEBUG\INDIVIDUAL3.OBJ|Z:\DROPBOX\PROG\C++\АИП\INDIVIDUAL3\INDIVIDUAL3\DEBUG\STDAFX.OBJ
/OUT:"Z:\DROPBOX\PROG\C++\АИП\INDIVIDUAL3\DEBUG\INDIVIDUAL3.EXE" /INCREMENTAL /NOLOGO KERNEL32.LIB USER32.LIB GDI32.LIB WINSPOOL.LIB COMDLG32.LIB ADVAPI32.LIB SHELL32.LIB OLE32.LIB OLEAUT32.LIB UUID.LIB ODBC32.LIB ODBCCP32.LIB /MANIFEST /MANIFESTUAC:"level='asInvoker' uiAccess='false'" /manifest:embed /DEBUG /PDB:"Z:\DROPBOX\PROG\C++\АИП\INDIVIDUAL3\DEBUG\INDIVIDUAL3.PDB" /SUBSYSTEM:CONSOLE /TLBID:1 /DYNAMICBASE /NXCOMPAT /IMPLIB:"Z:\DROPBOX\PROG\C++\АИП\INDIVIDUAL3\DEBUG\INDIVIDUAL3.LIB" /MACHINE:X86 DEBUG\INDIVIDUAL3.OBJDEBUG\STDAFX.OBJ
^C:\USERS\SYSAN\DROPBOX\PROG\C++\АИП\INDIVIDUAL3\INDIVIDUAL3\DEBUG\INDIVIDUAL3.OBJ|C:\USERS\SYSAN\DROPBOX\PROG\C++\АИП\INDIVIDUAL3\INDIVIDUAL3\DEBUG\STDAFX.OBJ
/OUT:"C:\USERS\SYSAN\DROPBOX\PROG\C++\АИП\INDIVIDUAL3\DEBUG\INDIVIDUAL3.EXE" /INCREMENTAL /NOLOGO KERNEL32.LIB USER32.LIB GDI32.LIB WINSPOOL.LIB COMDLG32.LIB ADVAPI32.LIB SHELL32.LIB OLE32.LIB OLEAUT32.LIB UUID.LIB ODBC32.LIB ODBCCP32.LIB /MANIFEST /MANIFESTUAC:"level='asInvoker' uiAccess='false'" /manifest:embed /DEBUG /PDB:"C:\USERS\SYSAN\DROPBOX\PROG\C++\АИП\INDIVIDUAL3\DEBUG\INDIVIDUAL3.PDB" /SUBSYSTEM:CONSOLE /TLBID:1 /DYNAMICBASE /NXCOMPAT /IMPLIB:"C:\USERS\SYSAN\DROPBOX\PROG\C++\АИП\INDIVIDUAL3\DEBUG\INDIVIDUAL3.LIB" /MACHINE:X86 DEBUG\INDIVIDUAL3.OBJDEBUG\STDAFX.OBJ
